{
  "com.atlassian.jira.rest.v2.issue.CommentPropertyResource.setCommentProperty_putBody": {
    "content": {
      "application/json": {
        "examples": {
          "x-example": {
            "description": "This example was copied over from Swagger V2 into this OAS 3.0 file.",
            "summary": "Example",
            "value": {
              "number": 5,
              "string": "string-value"
            }
          }
        },
        "schema": {}
      }
    },
    "required": true
  },
  "com.atlassian.jira.rest.v2.issue.IssueTypeResource.createIssueTypeAvatar_postBody": {
    "content": {
      "*/*": {
        "schema": {}
      }
    },
    "required": true
  },
  "CommentJsonBean": {
    "content": {
      "application/json": {
        "examples": {
          "x-example": {
            "description": "This example was copied over from Swagger V2 into this OAS 3.0 file.",
            "summary": "Example",
            "value": {
              "body": "Lorem ipsum dolor sit amet, consectetur adipiscing elit. Pellentesque eget venenatis elit. Duis eu justo eget augue iaculis fermentum. Sed semper quam laoreet nisi egestas at posuere augue semper.",
              "visibility": {
                "type": "role",
                "value": "Administrators"
              }
            }
          }
        },
        "schema": {
          "$ref": "#/components/schemas/CommentJsonBean"
        }
      }
    },
    "required": true
  },
  "ComponentBean": {
    "content": {
      "application/json": {
        "examples": {
          "x-example": {
            "description": "This example was copied over from Swagger V2 into this OAS 3.0 file.",
            "summary": "Example",
            "value": {
              "assigneeType": "PROJECT_LEAD",
              "description": "This is a Jira component",
              "isAssigneeTypeValid": false,
              "leadAccountId": "bd429c95-e27b-4423-a0bd-421cf3d69129",
              "leadUserName": "mia",
              "name": "Component 1",
              "project": "PROJECTKEY"
            }
          }
        },
        "schema": {
          "$ref": "#/components/schemas/ComponentBean"
        }
      }
    },
    "required": true
  },
  "CreateUpdateRoleRequestBean": {
    "content": {
      "application/json": {
        "examples": {
          "x-example": {
            "description": "This example was copied over from Swagger V2 into this OAS 3.0 file.",
            "summary": "Example",
            "value": {
              "description": "A project role that represents developers in a project",
              "name": "Developers"
            }
          }
        },
        "schema": {
          "$ref": "#/components/schemas/CreateUpdateRoleRequestBean"
        }
      }
    },
    "required": true
  },
  "IssueLinkTypeJsonBean": {
    "content": {
      "application/json": {
        "examples": {
          "x-example": {
            "description": "This example was copied over from Swagger V2 into this OAS 3.0 file.",
            "summary": "Example",
            "value": {
              "inward": "Duplicated by",
              "name": "Duplicate",
              "outward": "Duplicates"
            }
          }
        },
        "schema": {
          "$ref": "#/components/schemas/IssueLinkTypeJsonBean"
        }
      }
    },
    "required": true
  },
  "IssueTypeMappingBean": {
    "content": {
      "application/json": {
        "examples": {
          "x-example": {
            "description": "This example was copied over from Swagger V2 into this OAS 3.0 file.",
            "summary": "Example",
            "value": {
              "issueType": "10000",
              "updateDraftIfNeeded": false,
              "workflow": "jira"
            }
          }
        },
        "schema": {
          "$ref": "#/components/schemas/IssueTypeMappingBean"
        }
      }
    },
    "description": "The issue type-project mapping.",
    "required": true
  },
  "IssueUpdateBean": {
    "content": {
      "application/json": {
        "examples": {
          "x-example": {
            "description": "This example was copied over from Swagger V2 into this OAS 3.0 file.",
            "summary": "Example",
            "value": {
              "fields": {
                "assignee": {
                  "name": "bob"
                },
                "resolution": {
                  "name": "Fixed"
                }
              },
              "historyMetadata": {
                "activityDescription": "text description",
                "actor": {
                  "avatarUrl": "http://mysystem/avatar/tony.jpg",
                  "displayName": "Tony",
                  "id": "tony",
                  "type": "mysystem-user",
                  "url": "http://mysystem/users/tony"
                },
                "cause": {
                  "id": "myevent",
                  "type": "mysystem-event"
                },
                "description": "text description",
                "extraData": {
                  "goes": "here",
                  "keyvalue": "extra data"
                },
                "generator": {
                  "id": "mysystem-1",
                  "type": "mysystem-application"
                },
                "type": "myplugin:type"
              },
              "properties": [
                {
                  "key": "propertyKey",
                  "value": "propertyValue"
                }
              ],
              "transition": {
                "id": "5"
              },
              "update": {
                "comment": [
                  {
                    "add": {
                      "body": "Bug has been fixed."
                    }
                  }
                ]
              }
            }
          }
        },
        "schema": {
          "$ref": "#/components/schemas/IssueUpdateBean"
        }
      }
    },
    "required": true
  },
  "ProjectCategoryBean": {
    "content": {
      "application/json": {
        "examples": {
          "x-example": {
            "description": "This example was copied over from Swagger V2 into this OAS 3.0 file.",
            "summary": "Example",
            "value": {
              "description": "Updated Project Category",
              "name": "UPDATED"
            }
          }
        },
        "schema": {
          "$ref": "#/components/schemas/ProjectCategoryBean"
        }
      }
    },
    "required": true
  },
  "PropertyBean": {
    "content": {
      "application/json": {
        "examples": {
          "x-example": {
            "description": "This example was copied over from Swagger V2 into this OAS 3.0 file.",
            "summary": "Example",
            "value": {
              "value": "createissue"
            }
          }
        },
        "schema": {
          "$ref": "#/components/schemas/PropertyBean"
        }
      }
    },
    "required": true
  },
  "RemoteIssueLinkRequest": {
    "content": {
      "application/json": {
        "examples": {
          "x-example": {
            "description": "This example was copied over from Swagger V2 into this OAS 3.0 file.",
            "summary": "Example",
            "value": {
              "application": {
                "name": "My Acme Tracker",
                "type": "com.acme.tracker"
              },
              "globalId": "system=http://www.mycompany.com/support&id=1",
              "object": {
                "icon": {
                  "title": "Support Ticket",
                  "url16x16": "http://www.mycompany.com/support/ticket.png"
                },
                "status": {
                  "icon": {
                    "link": "http://www.mycompany.com/support?id=1&details=closed",
                    "title": "Case Closed",
                    "url16x16": "http://www.mycompany.com/support/resolved.png"
                  },
                  "resolved": true
                },
                "summary": "Customer support issue",
                "title": "TSTSUP-111",
                "url": "http://www.mycompany.com/support?id=1"
              },
              "relationship": "causes"
            }
          }
        },
        "schema": {
          "$ref": "#/components/schemas/RemoteIssueLinkRequest"
        }
      }
    },
    "required": true
  },
  "ScreenableTabBean": {
    "content": {
      "application/json": {
        "examples": {
          "x-example": {
            "description": "This example was copied over from Swagger V2 into this OAS 3.0 file.",
            "summary": "Example",
            "value": {
              "name": "Fields Tab"
            }
          }
        },
        "schema": {
          "$ref": "#/components/schemas/ScreenableTabBean"
        }
      }
    },
    "required": true
  },
  "VersionBean": {
    "content": {
      "application/json": {
        "examples": {
          "x-example": {
            "description": "This example was copied over from Swagger V2 into this OAS 3.0 file.",
            "summary": "Example",
            "value": {
              "archived": false,
              "description": "An excellent version",
              "id": "10000",
              "name": "New Version 1",
              "overdue": true,
              "projectId": 10000,
              "released": true,
              "releaseDate": "2010-07-06",
              "self": "http://your-domain.atlassian.net/rest/api/~ver~/version/10000",
              "userReleaseDate": "6/Jul/2010"
            }
          }
        },
        "schema": {
          "$ref": "#/components/schemas/VersionBean"
        }
      }
    },
    "required": true
  },
  "WorkflowMappingBean": {
    "content": {
      "application/json": {
        "examples": {
          "x-example": {
            "description": "This example was copied over from Swagger V2 into this OAS 3.0 file.",
            "summary": "Example",
            "value": {
              "issueTypes": [
                "10000"
              ],
              "updateDraftIfNeeded": true,
              "workflow": "jira"
            }
          }
        },
        "schema": {
          "$ref": "#/components/schemas/WorkflowMappingBean"
        }
      }
    },
    "required": true
  },
  "WorkflowSchemeBean": {
    "content": {
      "application/json": {
        "examples": {
          "x-example": {
            "description": "This example was copied over from Swagger V2 into this OAS 3.0 file.",
            "summary": "Example",
            "value": {
              "defaultWorkflow": "jira",
              "description": "The description of the example workflow scheme.",
              "issueTypeMappings": {
                "10000": "scrum workflow"
              },
              "name": "Example workflow scheme",
              "updateDraftIfNeeded": false
            }
          }
        },
        "schema": {
          "$ref": "#/components/schemas/WorkflowSchemeBean"
        }
      }
    },
    "required": true
  },
  "WorklogJsonBean": {
    "content": {
      "application/json": {
        "examples": {
          "x-example": {
            "description": "This example was copied over from Swagger V2 into this OAS 3.0 file.",
            "summary": "Example",
            "value": {
              "comment": {
                "content": [
                  {
                    "content": [
                      {
                        "text": "I did some work here.",
                        "type": "text"
                      }
                    ],
                    "type": "paragraph"
                  }
                ],
                "type": "doc",
                "version": 1
              },
              "started": "2018-12-12T14:05:46.452+0000",
              "timeSpentSeconds": 12000,
              "visibility": {
                "type": "group",
                "value": "jira-developers"
              }
            }
          }
        },
        "schema": {
          "$ref": "#/components/schemas/WorklogJsonBean"
        }
      }
    },
    "required": true
  }
}
